1.Chihuahua, 152
2.Japanese_spaniel, 185
3.Maltese_dog, 252
4.Pekinese, 149
5.Tzu, 214
6.Blenheim_spaniel, 188
7.papillon, 196
8.toy_terrier, 172
9.Rhodesian_ridgeback, 172
10.Afghan_hound, 239
11.basset, 175
12.beagle, 195
13.bloodhound, 187
14.bluetick, 171
15.tan_coonhound, 159
16.Walker_hound, 153
17.English_foxhound, 157
18.redbone, 148
19.borzoi, 151
20.Irish_wolfhound, 218
21.Italian_greyhound, 182
22.whippet, 187
23.Ibizan_hound, 188
24.Norwegian_elkhound, 196
25.otterhound, 151
26.Saluki, 200
27.Scottish_deerhound, 232
28.Weimaraner, 160
29.Staffordshire_bullterrier, 155
30.American_Staffordshire_terrier, 164
31.Bedlington_terrier, 182
32.Border_terrier, 172
33.Kerry_blue_terrier, 179
34.Irish_terrier, 169
35.Norfolk_terrier, 172
36.Norwich_terrier, 185
37.Yorkshire_terrier, 164
38.haired_fox_terrier, 157
39.Lakeland_terrier, 197
40.Sealyham_terrier, 202
41.Airedale, 202
42.cairn, 197
43.Australian_terrier, 196
44.Dandie_Dinmont, 180
45.Boston_bull, 182
46.miniature_schnauzer, 154
47.giant_schnauzer, 157
48.standard_schnauzer, 155
49.Scotch_terrier, 158
50.Tibetan_terrier, 206
51.silky_terrier, 183
52.coated_wheaten_terrier, 156
53.West_Highland_white_terrier, 169
54.Lhasa, 186
55.coated_retriever, 152
56.coated_retriever, 151
57.golden_retriever, 150
58.Labrador_retriever, 171
59.Chesapeake_Bay_retriever, 167
60.haired_pointer, 152
61.vizsla, 154
62.English_setter, 161
63.Irish_setter, 155
64.Gordon_setter, 153
65.Brittany_spaniel, 152
66.clumber, 150
67.English_springer, 159
68.Welsh_springer_spaniel, 150
69.cocker_spaniel, 159
70.Sussex_spaniel, 151
71.Irish_water_spaniel, 150
72.kuvasz, 150
73.schipperke, 154
74.groenendael, 150
75.malinois, 150
76.briard, 152
77.kelpie, 153
78.komondor, 154
79.Old_English_sheepdog, 169
80.Shetland_sheepdog, 157
81.collie, 153
82.Border_collie, 150
83.Bouvier_des_Flandres, 150
84.Rottweiler, 152
85.German_shepherd, 152
86.Doberman, 150
87.miniature_pinscher, 184
88.Greater_Swiss_Mountain_dog, 168
89.Bernese_mountain_dog, 218
90.Appenzeller, 151
91.EntleBucher, 202
92.boxer, 151
93.bull_mastiff, 156
94.Tibetan_mastiff, 152
95.French_bulldog, 159
96.Great_Dane, 156
97.Saint_Bernard, 170
98.Eskimo_dog, 150
99.malamute, 178
100.Siberian_husky, 192
101.affenpinscher, 150
102.basenji, 209
103.pug, 200
104.Leonberg, 210
105.Newfoundland, 195
106.Great_Pyrenees, 213
107.Samoyed, 218
108.Pomeranian, 219
109.chow, 196
110.keeshond, 158
111.Brabancon_griffon, 153
112.Pembroke, 181
113.Cardigan, 155
114.toy_poodle, 151
115.miniature_poodle, 155
116.standard_poodle, 159
117.Mexican_hairless, 155
118.dingo, 156
119.dhole, 150
120.African_hunting_dog, 169
